23A4BC235ACF57AB5592F8E348A5282E.cache.js
locale default
user.agent safari

57D0630F0E34BB3143AD60C3684793D2.cache.js
locale en
user.agent ie9

6B878F9DA74B8CF956735378947134BC.cache.js
locale en
user.agent safari

8941169A450AB7258F8FE918EEE101DA.cache.js
locale default
user.agent ie9

Devmode:devmode.js