@startuml viewContact.png
skinparam handwritten true
skinparam monochrome true
skinparam packageStyle rect
skinparam defaultFontName FG Virgil
skinparam shadowing false

actor User
participant MainMenuTreeViewModel
participant CWContacts
participant ContactsController
participant ContactsPresenter
participant ContactsView

MainMenuTreeViewModel -> CWContacts : new
CWContacts -> ContactsController : new
ContactsController -> ContactsPresenter : new ContactsPresenter(new ContactsView()) 
ContactsPresenter -> ContactsView : new

User ->> ContactsView : "Selects Contact to Delete"
ContactsController -> ContactsPresenter : new DeleteContract(id) 
ContactsPresenter -> User : "Shows Contact as been deleted"


@enduml