@startuml sequence-diagram.png
skinparam handwritten true
skinparam monochrome true
skinparam packageStyle rect
skinparam defaultFontName FG Virgil
skinparam shadowing false

actor User
participant ContactsUI
participant ContactsController
participant EditContactPresenter
participant EditContactPresenter
participant ContactUpdatedEvent

User->ContactsUI: Update contact
ContactsUI->ContactsController: Update Contact event 
ContactsController->EditContactPresenter: doEditContact()
EditContactPresenter->ContactUpdatedEvent: doSave()
EditContactPresenter-->ContactsUI:Contact Updated
ContactsUI-->User: Display


@enduml